Tidy Processing and Analysis of Biological Sequences • tidysq
…
install.packages("tidysq")

Alternatively, it is possible to download the development version directly from GitHub repository:

# install.packages("devtools")
devtools::install_github("BioGenies/tidysq")

Example usage

library(tidysq)

file <- system.file("examples", "example_aa.fasta", package = "tidysq")
sqibble <- read_fasta(file)
sqibble
#> # A tibble: 421 x 2
#>    sq             name                               
#>    <ami_bsc>      <chr>                              
#>  1 PGGGKVQIV <13> AMY1|K19|T-Protein (Tau)           
#>  2 NLKHQPGGG <43> AMY9|K19Gluc41|T-Protein (Tau)     
#>  3 NLKHQPGGG <19> AMY14|K19Gluc782|T-Protein (Tau)   
#>  4 GKVQIVYK   <8> AMY17|PHF8|T-Protein (Tau)         
#>  5 VQIVYK     <6> AMY18|PHF6|T-Protein (Tau)         
#>  6 DAEFRHDSG <40> AMY22|Whole|Amyloid beta A4 peptide
#>  7 VPHQKLVFF <15> AMY23|HABP1|Amyloid beta A4 peptide
#>  8 VHPQKLVFF <15> AMY24|HABP2|Amyloid beta A4 peptide
#>  9 VHHPKLVFF <15> AMY25|HABP3|Amyloid beta A4 peptide
#> 10 VHHQPLVFF <15> AMY26|HABP4|Amyloid beta A4 peptide
#> # … with 411 more rows
…
An example of dplyr integration:

library(dplyr)
# tidysq integrates well with dplyr verbs
sqibble %>%
  filter(sq %has% "VFF") %>%
  mutate(length = get_sq_lengths(sq))
#> # A tibble: 24 x 3
#>    sq             name                                 length
#>    <ami_bsc>      <chr>                                 <dbl>
#>  1 DAEFRHDSG <40> AMY22|Whole|Amyloid beta A4 peptide      40
#>  2 VPHQKLVFF <15> AMY23|HABP1|Amyloid beta A4 peptide      15
#>  3 VHPQKLVFF <15> AMY24|HABP2|Amyloid beta A4 peptide      15
#>  4 VHHPKLVFF <15> AMY25|HABP3|Amyloid beta A4 peptide      15
#>  5 VHHQPLVFF <15> AMY26|HABP4|Amyloid beta A4 peptide      15
#>  6 KKLVFFPED  <9> AMY32|HABP10|Amyloid beta A4 peptide      9
#>  7 VHHQEKLVF <16> AMY34|HABP12|Amyloid beta A4 peptide     16
#>  8 VHHQEKLVF <16> AMY35|HABP13|Amyloid beta A4 peptide     16
#>  9 VHHQEKLVF <16> AMY36|HABP14|Amyloid beta A4 peptide     16
#> 10 KKLVFFAED  <9> AMY37|HABP15|Amyloid beta A4 peptide      9
#> # … with 14 more rows
…
