Read a FASTA file — read_fasta • tidysq
…
Functions read_fasta_ami and read_fasta_nuc are wrappers around 
read_fasta with specified type parameter - accordingly "ami" or "nuc". You
can also pass "is_clean" parameter to those functions, but you cannot pass "non_standard".

    See also

    readLines construct_sq

    Examples

fasta_file <- system.file(package = "tidysq",
                     "sample_fasta/sample_ami.fasta")
read_fasta(fasta_file)
#> # A tibble: 100 x 2
#>    name          sq                      
#>    <chr>         <ami>                   
#>  1 sample_ami 1  KWOVPFWSAZFBTPS...  <29>
#>  2 sample_ami 2  EDAJZOIFQLVTAYV...  <32>
#>  3 sample_ami 3  GXAYZJKAEOMETFG...  <28>
#>  4 sample_ami 4  CCTKOSTJAEDGMIK...  <27>
#>  5 sample_ami 5  DCRTRZJWBHRPHXH...  <30>
#>  6 sample_ami 6  PSQLECWRPRGQZFP...  <29>
#>  7 sample_ami 7  DKWLELEWMYCWQJY...  <28>
#>  8 sample_ami 8  LLBOMGZSKZIEXDP...  <28>
#>  9 sample_ami 9  KAZBIBGOMLLDYHH...  <25>
#> 10 sample_ami 10 FZFTAMEOKKIMZUF...  <28>
#> # … with 90 more rows
read_fasta_ami(fasta_file)
#> # A tibble: 100 x 2
#>    name          sq                      
#>    <chr>         <ami>                   
#>  1 sample_ami 1  KWOVPFWSAZFBTPS...  <29>
#>  2 sample_ami 2  EDAJZOIFQLVTAYV...  <32>
#>  3 sample_ami 3  GXAYZJKAEOMETFG...  <28>
#>  4 sample_ami 4  CCTKOSTJAEDGMIK...  <27>
#>  5 sample_ami 5  DCRTRZJWBHRPHXH...  <30>
#>  6 sample_ami 6  PSQLECWRPRGQZFP...  <29>
#>  7 sample_ami 7  DKWLELEWMYCWQJY...  <28>
#>  8 sample_ami 8  LLBOMGZSKZIEXDP...  <28>
#>  9 sample_ami 9  KAZBIBGOMLLDYHH...  <25>
#> 10 sample_ami 10 FZFTAMEOKKIMZUF...  <28>
#> # … with 90 more rows
…
